﻿**************************************************************************************************
				PASSAGE DU SERVEUR EN HTTPS
************************************************************************************************** 

1 ) Aller sur le serveur qu'on souhaite passer en mode HTTP 
2 ) Lancer le terminal dans le dossier /conf de Tomcat (ou à la racine de tomcat ?)
3 ) Entrer la commande suivante:
	  keytool -genkey -alias tomcat -keyalg RSA -keystore keystore.jks
4 ) Remplir les champs demandés( et surtout bien noter le mdp qqpart car il sera necessaire ailleurs)

 et changer le nom chermin vers le fichier keystore.jks si besoin avc le mdp crée via cmd


5 ) Aller dans le fichier de configuration du serveur 
et ajouter connector suivant dans le fichier /conf/server.xml :

ATTENTION! avant de poursuivre *****
* donner votre chemin ou se trouve le fichier genere dans => keystoreFile
* entrer votre mdp donnée à Tomcat à l'etape 4 dans => keystorePass



<Connector port="8443" protocol="org.apache.coyote.http11.Http11NioProtocol"
               maxThreads="200"
               scheme="https"
               secure="true"
               SSLEnabled="true"
               keystoreFile="C:\Users\HP\Documents\CI\apache-tomcat-8.5.40-windows-x64\apache-tomcat-8.5.40\conf\keystore.jks"
               keystorePass="159753"
               clientAuth="false"
               sslProtocol="TLS">
    <UpgradeProtocol className="org.apache.coyote.http2.Http2Protocol" />
    </Connector>

6 ) Sauvegarder.

